﻿mov (4+6)*2, %edx
push %edx*2
int 0x80
push %edx
push %ecx									
int 0x80
int 0x80
mov 4 - 1, %ecx
push %ecx	
int 0x80
mov 24, %ecx
xor %ebx, %ebx
mov %ebx + 3 + %edx*2 + 5 - %ecx, %ecx
push %edx + %ecx + %ebx						
int 0x80
push 215									
int 0x80